Bananeira = models/natural/arvores/bananeira/bananeira.dcc
Bush = models/natural/bush/bush.dcc
Cogumelo = models/natural/cogumelo/cogumelo.dcc
DeatTree1 = models/natural/arvores/deadtrees/deadtree1.dcc
DeatTree2 = models/natural/arvores/deadtrees/deadtree2.dcc
DeatTree3 = models/natural/arvores/deadtrees/deadtree3.dcc
Ovo = models/natural/ovo/ovo.dcc
Tree_1 = models/natural/arvores/tree1/tree1.dcc
Tree_2 = models/natural/arvores/tree2/tree2.dcc
Tree_3 = models/natural/arvores/tree3/tree3.dcc
Tree_4 = models/natural/arvores/tree4/tree4.dcc
Wood_Fire = models/natural/fogueira/fogueira.dcc
Tux_Rock_Art = models/objetos/paints/tux_rock_art/tux_rock_art.dcc
